---
http_interactions:
- request:
    method: post
    uri: https://api.flickr.com/services/rest/
    body:
      encoding: US-ASCII
      string: text=family+vacation&method=flickr.photos.search&format=json&nojsoncallback=1
    headers:
      Accept-Encoding:
      - gzip;q=1.0,deflate;q=0.6,identity;q=0.3
      Accept:
      - "*/*"
      User-Agent:
      - Flickr/2.0.1 (+https://github.com/cyclotron3k/flickr)
      Authorization:
      - OAuth realm="https://api.flickr.com/services/rest/", oauth_consumer_key="00000000000000000000000000000000",
        oauth_signature="0000000000000000%26", oauth_signature_method="PLAINTEXT", oauth_timestamp="1554611613", oauth_token="",
        oauth_version="1.0"
      Content-Type:
      - application/x-www-form-urlencoded
  response:
    status:
      code: 200
      message: OK
    headers:
      Date:
      - Sun, 07 Apr 2019 04:33:34 GMT
      Content-Type:
      - application/json
      Content-Length:
      - '3559'
      P3p:
      - policyref="https://policies.yahoo.com/w3c/p3p.xml", CP="CAO DSP COR CUR ADM
        DEV TAI PSA PSD IVAi IVDi CONi TELo OTPi OUR DELi SAMi OTRi UNRi PUBi IND
        PHY ONL UNI PUR FIN COM NAV INT DEM CNT STA POL HEA PRE LOC GOV"
      Cache-Control:
      - private
      X-Served-By:
      - www-bm005.flickr.bf1.yahoo.com
      X-Frame-Options:
      - SAMEORIGIN
      Vary:
      - Accept-Encoding
      Age:
      - '1'
      Server:
      - ATS
      Referrer-Policy:
      - no-referrer-when-downgrade
      Connection:
      - keep-alive
      Strict-Transport-Security:
      - max-age=15552000
      Expect-Ct:
      - max-age=31536000, report-uri="http://csp.yahoo.com/beacon/csp?src=yahoocom-expect-ct-report-only"
      X-Xss-Protection:
      - 1; mode=block
      X-Content-Type-Options:
      - nosniff
    body:
      encoding: ASCII-8BIT
      string: '{"photos":{"page":1,"pages":5683,"perpage":100,"total":"568294","photo":[{"id":"47553004111","owner":"15538284@N05","secret":"a0f663d4ec","server":"7880","farm":8,"title":"03.29.2019
        Kiawah","ispublic":1,"isfriend":0,"isfamily":0},{"id":"33676240528","owner":"15538284@N05","secret":"a66c7cee8a","server":"7810","farm":8,"title":"03.29.2019
        Kiawah","ispublic":1,"isfriend":0,"isfamily":0},{"id":"46637428415","owner":"15538284@N05","secret":"f939d3c888","server":"7838","farm":8,"title":"03.29.2019
        Kiawah","ispublic":1,"isfriend":0,"isfamily":0},{"id":"46637414585","owner":"15538284@N05","secret":"392fa58b3d","server":"7882","farm":8,"title":"03.29.2019
        Kiawah","ispublic":1,"isfriend":0,"isfamily":0},{"id":"47552921581","owner":"15538284@N05","secret":"282d0acd5c","server":"7904","farm":8,"title":"03.29.2019
        Kiawah","ispublic":1,"isfriend":0,"isfamily":0},{"id":"46637370165","owner":"15538284@N05","secret":"44c6211b17","server":"7915","farm":8,"title":"03.29.2019
        Kiawah","ispublic":1,"isfriend":0,"isfamily":0},{"id":"46829197914","owner":"15538284@N05","secret":"05c0c9b5e9","server":"7882","farm":8,"title":"03.29.2019
        Kiawah","ispublic":1,"isfriend":0,"isfamily":0},{"id":"47552832811","owner":"15538284@N05","secret":"1785a39535","server":"7836","farm":8,"title":"03.28.2019
        Kiawah","ispublic":1,"isfriend":0,"isfamily":0},{"id":"33676026398","owner":"15538284@N05","secret":"026c374bf4","server":"7888","farm":8,"title":"03.28.2019
        Kiawah","ispublic":1,"isfriend":0,"isfamily":0},{"id":"47499958692","owner":"15538284@N05","secret":"2daea7ce72","server":"7810","farm":8,"title":"03.28.2019
        Kiawah","ispublic":1,"isfriend":0,"isfamily":0},{"id":"46637214535","owner":"15538284@N05","secret":"c57b566918","server":"7880","farm":8,"title":"03.28.2019
        Kiawah","ispublic":1,"isfriend":0,"isfamily":0},{"id":"47552716331","owner":"15538284@N05","secret":"ac96e839f5","server":"7827","farm":8,"title":"03.28.2019
        Kiawah","ispublic":1,"isfriend":0,"isfamily":0},{"id":"47552704631","owner":"15538284@N05","secret":"bf6696932e","server":"7819","farm":8,"title":"03.28.2019
        Kiawah","ispublic":1,"isfriend":0,"isfamily":0},{"id":"47499911482","owner":"15538284@N05","secret":"e2f928f35c","server":"7888","farm":8,"title":"03.29.2019
        Kiawah","ispublic":1,"isfriend":0,"isfamily":0},{"id":"47552660681","owner":"15538284@N05","secret":"94fd8a026b","server":"7898","farm":8,"title":"03.29.2019
        Kiawah","ispublic":1,"isfriend":0,"isfamily":0},{"id":"47499897822","owner":"15538284@N05","secret":"eef402a8b3","server":"7807","farm":8,"title":"03.29.2019
        Kiawah","ispublic":1,"isfriend":0,"isfamily":0},{"id":"47499888342","owner":"15538284@N05","secret":"b20f7a9e7c","server":"7809","farm":8,"title":"03.29.2019
        Kiawah","ispublic":1,"isfriend":0,"isfamily":0},{"id":"46637135535","owner":"15538284@N05","secret":"be56111898","server":"7817","farm":8,"title":"03.29.2019
        Kiawah","ispublic":1,"isfriend":0,"isfamily":0},{"id":"33675875568","owner":"15538284@N05","secret":"9131a8de89","server":"7882","farm":8,"title":"03.29.2019
        Kiawah","ispublic":1,"isfriend":0,"isfamily":0},{"id":"32610088167","owner":"15538284@N05","secret":"b3b0fdaaf0","server":"7801","farm":8,"title":"03.29.2019
        Kiawah","ispublic":1,"isfriend":0,"isfamily":0},{"id":"46637033085","owner":"15538284@N05","secret":"300a16f8d9","server":"7801","farm":8,"title":"03.29.2019
        Kiawah","ispublic":1,"isfriend":0,"isfamily":0},{"id":"33675837218","owner":"15538284@N05","secret":"9f55dd854f","server":"7916","farm":8,"title":"03.29.2019
        Kiawah","ispublic":1,"isfriend":0,"isfamily":0},{"id":"46828538224","owner":"15538284@N05","secret":"8de6a6e35a","server":"7879","farm":8,"title":"03.29.2019
        Kiawah","ispublic":1,"isfriend":0,"isfamily":0},{"id":"47499399042","owner":"15538284@N05","secret":"e837ba7fd5","server":"7816","farm":8,"title":"03.29.2019
        Kiawah","ispublic":1,"isfriend":0,"isfamily":0},{"id":"32609663237","owner":"15538284@N05","secret":"98871767a5","server":"7836","farm":8,"title":"03.29.2019
        Kiawah","ispublic":1,"isfriend":0,"isfamily":0},{"id":"46828516804","owner":"15538284@N05","secret":"c1798d4a94","server":"7917","farm":8,"title":"03.29.2019
        Kiawah","ispublic":1,"isfriend":0,"isfamily":0},{"id":"46636605995","owner":"15538284@N05","secret":"424fedb1c2","server":"7848","farm":8,"title":"03.29.2019
        Kiawah","ispublic":1,"isfriend":0,"isfamily":0},{"id":"32609614567","owner":"15538284@N05","secret":"ffa2f1c867","server":"7852","farm":8,"title":"03.29.2019
        Kiawah","ispublic":1,"isfriend":0,"isfamily":0},{"id":"40585559233","owner":"15538284@N05","secret":"757ec93c2a","server":"7801","farm":8,"title":"03.29.2019
        Kiawah","ispublic":1,"isfriend":0,"isfamily":0},{"id":"46636086915","owner":"15538284@N05","secret":"009eb8ffe7","server":"7828","farm":8,"title":"03.29.2019
        Kiawah","ispublic":1,"isfriend":0,"isfamily":0},{"id":"47498002772","owner":"93390528@N04","secret":"6a4f5ee848","server":"7865","farm":8,"title":"British
        Columbia \/ B.C. Postal History - 23 March 1909 - New Westminster, B.C. (machine
        cancel) to DEWDNEY, B.C. (split ring \/ broken circle cancel \/ postmark)","ispublic":1,"isfriend":0,"isfamily":0},{"id":"40584202703","owner":"154473763@N08","secret":"df0be39837","server":"7913","farm":8,"title":"What
        to Wear to a Winery (Your Ultimate Style Guide for Winery Outfits)","ispublic":1,"isfriend":0,"isfamily":0},{"id":"33673265198","owner":"150193970@N02","secret":"ea28bab91f","server":"7870","farm":8,"title":"Island
        Hopping","ispublic":1,"isfriend":0,"isfamily":0},{"id":"47549754311","owner":"9600117@N03","secret":"77cfa62516","server":"7927","farm":8,"title":"Today''s
        Mass Extinction and Holocene-Anthropocene Thermal Maximum are being caused
        by the Super Rich","ispublic":1,"isfriend":0,"isfamily":0},{"id":"47549753581","owner":"9600117@N03","secret":"4556dc8f62","server":"7806","farm":8,"title":"Today''s
        Mass Extinction and Holocene-Anthropocene Thermal Maximum are being caused
        by the Super Rich","ispublic":1,"isfriend":0,"isfamily":0},{"id":"47549751021","owner":"9600117@N03","secret":"60af9f50cb","server":"7832","farm":8,"title":"Today''s
        Mass Extinction and Holocene-Anthropocene Thermal Maximum are being caused
        by the Super Rich","ispublic":1,"isfriend":0,"isfamily":0},{"id":"46825823034","owner":"156994511@N02","secret":"ec2ae31537","server":"7915","farm":8,"title":"Why
        We Are Unique in Rent a Car Industry","ispublic":1,"isfriend":0,"isfamily":0},{"id":"46631147945","owner":"125931999@N02","secret":"1a0f953d9b","server":"7821","farm":8,"title":"Devastation
        Squadron","ispublic":1,"isfriend":0,"isfamily":0},{"id":"32602870877","owner":"127634200@N05","secret":"a7580c35ef","server":"7916","farm":8,"title":"Detail
        from the wall at Spa Pantavi, Ecuador","ispublic":1,"isfriend":0,"isfamily":0},{"id":"32602182837","owner":"15538284@N05","secret":"e40e4c0f6f","server":"7851","farm":8,"title":"03.29.2019
        Kiawah","ispublic":1,"isfriend":0,"isfamily":0},{"id":"32601942167","owner":"15538284@N05","secret":"f13633c2dc","server":"7881","farm":8,"title":"03.29.2019","ispublic":1,"isfriend":0,"isfamily":0},{"id":"40578485633","owner":"15538284@N05","secret":"b20a277f75","server":"7900","farm":8,"title":"03.29.2019
        Kiawah","ispublic":1,"isfriend":0,"isfamily":0},{"id":"40578468153","owner":"15538284@N05","secret":"e0caa26d03","server":"7821","farm":8,"title":"03.30.2019
        Kiawah","ispublic":1,"isfriend":0,"isfamily":0},{"id":"33667646168","owner":"15538284@N05","secret":"c0508ecf3d","server":"7823","farm":8,"title":"03.30.2019
        Kiawah","ispublic":1,"isfriend":0,"isfamily":0},{"id":"33667593008","owner":"15538284@N05","secret":"ebeac01a42","server":"7861","farm":8,"title":"03.30.2019
        Kiawah","ispublic":1,"isfriend":0,"isfamily":0},{"id":"40578344143","owner":"15538284@N05","secret":"3e417a5fda","server":"7913","farm":8,"title":"03.30.2019
        Kiawah","ispublic":1,"isfriend":0,"isfamily":0},{"id":"33667533098","owner":"15538284@N05","secret":"62efcd3fe6","server":"7926","farm":8,"title":"03.30.2019
        Kiawah","ispublic":1,"isfriend":0,"isfamily":0},{"id":"47491521102","owner":"15538284@N05","secret":"a18565386c","server":"7891","farm":8,"title":"03.30.2019
        Kiawah","ispublic":1,"isfriend":0,"isfamily":0},{"id":"40578271363","owner":"15538284@N05","secret":"db580677a4","server":"7886","farm":8,"title":"03.30.2019
        Kiawah","ispublic":1,"isfriend":0,"isfamily":0},{"id":"47544246821","owner":"144327426@N02","secret":"21944d7b15","server":"7855","farm":8,"title":"DSC_2839","ispublic":1,"isfriend":0,"isfamily":0},{"id":"46820325444","owner":"52272797@N06","secret":"746123739a","server":"7883","farm":8,"title":"New
        Mexico - Roswell Family Vacation - TO TRADE","ispublic":1,"isfriend":0,"isfamily":0},{"id":"47491146922","owner":"150193970@N02","secret":"4917923a80","server":"7901","farm":8,"title":"Our
        Caribbean Travel","ispublic":1,"isfriend":0,"isfamily":0},{"id":"29167629721","owner":"46528834@N05","secret":"407b103e3f","server":"8111","farm":9,"title":"GREEN
        GABLES  | LUCY MAUD MONTGOMERY |  PRINCE EDWARD ISLAND  |  PEI  |  CANADA","ispublic":1,"isfriend":0,"isfamily":0},{"id":"4295785872","owner":"46528834@N05","secret":"7e0dbc0a07","server":"2792","farm":3,"title":"GREEN
        GABLES  | LUCY MAUD MONTGOMERY |  PRINCE EDWARD ISLAND  |  PEI  |  CANADA","ispublic":1,"isfriend":0,"isfamily":0},{"id":"5100164313","owner":"46528834@N05","secret":"d3091fe098","server":"1327","farm":2,"title":"GREEN
        GABLES  | LUCY MAUD MONTGOMERY |  PRINCE EDWARD ISLAND  |  PEI  |  CANADA","ispublic":1,"isfriend":0,"isfamily":0},{"id":"5009841115","owner":"46528834@N05","secret":"05a0703540","server":"4129","farm":5,"title":"GREEN
        GABLES  | LUCY MAUD MONTGOMERY |  PRINCE EDWARD ISLAND  |  PEI  |  CANADA","ispublic":1,"isfriend":0,"isfamily":0},{"id":"32599142687","owner":"150193970@N02","secret":"b7a7cb29fc","server":"7872","farm":8,"title":"Our
        Caribbean Travel","ispublic":1,"isfriend":0,"isfamily":0},{"id":"47541434741","owner":"158994985@N08","secret":"e7c34a2619","server":"7867","farm":8,"title":"Make
        your Vacation More Memorable at IC Hotels Green Palace","ispublic":1,"isfriend":0,"isfamily":0},{"id":"40574852603","owner":"147673660@N06","secret":"650b49e236","server":"7897","farm":8,"title":"Plan
        Your Vacations with Southwest Airlines Reservations","ispublic":1,"isfriend":0,"isfamily":0},{"id":"33663797338","owner":"147673660@N06","secret":"033223960b","server":"7907","farm":8,"title":"Plan
        Summer Vacations with Family at Alaska Airlines Reservations","ispublic":1,"isfriend":0,"isfamily":0},{"id":"33663290778","owner":"158524155@N03","secret":"c35496c955","server":"7887","farm":8,"title":"khopoli
        resort,Resorts near mumbai,resorts near mumbai for overnight stay","ispublic":1,"isfriend":0,"isfamily":0},{"id":"47486466892","owner":"135081788@N03","secret":"4579debc6d","server":"7849","farm":8,"title":"So
        Cool by Dave Basso","ispublic":1,"isfriend":0,"isfamily":0},{"id":"46623710835","owner":"15538284@N05","secret":"439da22161","server":"7833","farm":8,"title":"03.30.2019
        Kiawah","ispublic":1,"isfriend":0,"isfamily":0},{"id":"32596700147","owner":"15538284@N05","secret":"b6aee22800","server":"7842","farm":8,"title":"03.30.2019
        Kiawah","ispublic":1,"isfriend":0,"isfamily":0},{"id":"40573156413","owner":"15538284@N05","secret":"a1abcef9be","server":"7917","farm":8,"title":"03.30.2019
        Kiawah","ispublic":1,"isfriend":0,"isfamily":0},{"id":"47539115321","owner":"15538284@N05","secret":"2c29079483","server":"7844","farm":8,"title":"03.30.2019
        Kiawah","ispublic":1,"isfriend":0,"isfamily":0},{"id":"46623630615","owner":"15538284@N05","secret":"7c4a94bb19","server":"7919","farm":8,"title":"03.30.2019
        Kiawah","ispublic":1,"isfriend":0,"isfamily":0},{"id":"46622988965","owner":"44615393@N04","secret":"bfd5b96fba","server":"7900","farm":8,"title":"San
        Giovanni","ispublic":1,"isfriend":0,"isfamily":0},{"id":"46621970915","owner":"150193970@N02","secret":"fb62dacaab","server":"7867","farm":8,"title":"Travelling
        with Family","ispublic":1,"isfriend":0,"isfamily":0},{"id":"40571267153","owner":"58058190@N00","secret":"150f1d0248","server":"7913","farm":8,"title":"Montecatini
        Terme, Italia - 1967","ispublic":1,"isfriend":0,"isfamily":0},{"id":"47484004452","owner":"133876835@N08","secret":"349e8cfed9","server":"7852","farm":8,"title":"England
        \/ Cornwall - St Michael''s Mount","ispublic":1,"isfriend":0,"isfamily":0},{"id":"33659431918","owner":"144327426@N02","secret":"7cd68318fb","server":"7837","farm":8,"title":"DSC_4951","ispublic":1,"isfriend":0,"isfamily":0},{"id":"46620638295","owner":"74062379@N05","secret":"6a08565786","server":"7867","farm":8,"title":"In
        Front of Mpu Tantular Museum","ispublic":1,"isfriend":0,"isfamily":0},{"id":"47535082291","owner":"55548794@N03","secret":"184ac15d9a","server":"7837","farm":8,"title":"Nzharvest14
        (17 of 17)","ispublic":1,"isfriend":0,"isfamily":0},{"id":"46619576755","owner":"55548794@N03","secret":"e108cb0b40","server":"7917","farm":8,"title":"Nzharvest14
        (16 of 17)","ispublic":1,"isfriend":0,"isfamily":0},{"id":"40569045233","owner":"55548794@N03","secret":"83dcd7880c","server":"7840","farm":8,"title":"Nzharvest14
        (15 of 17)","ispublic":1,"isfriend":0,"isfamily":0},{"id":"47482348872","owner":"55548794@N03","secret":"6ff034bd55","server":"7832","farm":8,"title":"Nzharvest14
        (14 of 17)","ispublic":1,"isfriend":0,"isfamily":0},{"id":"47535075611","owner":"55548794@N03","secret":"9e35c6f335","server":"7807","farm":8,"title":"Nzharvest14
        (13 of 17)","ispublic":1,"isfriend":0,"isfamily":0},{"id":"47535073971","owner":"55548794@N03","secret":"cb48f568ef","server":"7801","farm":8,"title":"Nzharvest14
        (12 of 17)","ispublic":1,"isfriend":0,"isfamily":0},{"id":"33658342678","owner":"55548794@N03","secret":"59ce9343b2","server":"7804","farm":8,"title":"Nzharvest14
        (11 of 17)","ispublic":1,"isfriend":0,"isfamily":0},{"id":"46811343474","owner":"55548794@N03","secret":"f053d3bccf","server":"7910","farm":8,"title":"Nzharvest14
        (10 of 17)","ispublic":1,"isfriend":0,"isfamily":0},{"id":"46619569695","owner":"55548794@N03","secret":"2045bf3234","server":"7801","farm":8,"title":"Nzharvest14
        (9 of 17)","ispublic":1,"isfriend":0,"isfamily":0},{"id":"32592681197","owner":"55548794@N03","secret":"6f56111732","server":"7823","farm":8,"title":"Nzharvest14
        (8 of 17)","ispublic":1,"isfriend":0,"isfamily":0},{"id":"46811337944","owner":"55548794@N03","secret":"3ca4613ddb","server":"7887","farm":8,"title":"Nzharvest14
        (7 of 17)","ispublic":1,"isfriend":0,"isfamily":0},{"id":"47535060341","owner":"55548794@N03","secret":"fcc5a666f5","server":"7909","farm":8,"title":"Nzharvest14
        (6 of 17)","ispublic":1,"isfriend":0,"isfamily":0},{"id":"46619565985","owner":"55548794@N03","secret":"01130e1412","server":"7912","farm":8,"title":"Nzharvest14
        (5 of 17)","ispublic":1,"isfriend":0,"isfamily":0},{"id":"46619563945","owner":"55548794@N03","secret":"8101358097","server":"7864","farm":8,"title":"Nzharvest14
        (4 of 17)","ispublic":1,"isfriend":0,"isfamily":0},{"id":"40569027043","owner":"55548794@N03","secret":"f190d27cc5","server":"7916","farm":8,"title":"Nzharvest14
        (3 of 17)","ispublic":1,"isfriend":0,"isfamily":0},{"id":"46811329294","owner":"55548794@N03","secret":"37931a451a","server":"7834","farm":8,"title":"Nzharvest14
        (2 of 17)","ispublic":1,"isfriend":0,"isfamily":0},{"id":"46619555575","owner":"55548794@N03","secret":"64331cb182","server":"7811","farm":8,"title":"Nzharvest14
        (1 of 17)","ispublic":1,"isfriend":0,"isfamily":0},{"id":"47534971801","owner":"153736390@N07","secret":"d584ec79e0","server":"7867","farm":8,"title":"4
        Tips to Find Luxury Hotels in Grenada for Holiday","ispublic":1,"isfriend":0,"isfamily":0},{"id":"47482232242","owner":"29884046@N02","secret":"4b13b15544","server":"7825","farm":8,"title":"1939
        CCM Flyte locked to a fence in Quebec City. Part I","ispublic":1,"isfriend":0,"isfamily":0},{"id":"33657862288","owner":"165811513@N02","secret":"a9cdd5677a","server":"7878","farm":8,"title":"Fripp
        Island Vacation Rentals","ispublic":1,"isfriend":0,"isfamily":0},{"id":"32591898567","owner":"165615118@N08","secret":"a6209bdd77","server":"7803","farm":8,"title":"Enjoy
        Your Memorable Trip with Phuket Tourism","ispublic":1,"isfriend":0,"isfamily":0},{"id":"46618676695","owner":"168668084@N04","secret":"f155c158b6","server":"7816","farm":8,"title":"Go
        On a Family Vacation with Delta Airlines Phone Number","ispublic":1,"isfriend":0,"isfamily":0},{"id":"47533959891","owner":"145930121@N03","secret":"733d9711c8","server":"7892","farm":8,"title":"Escape
        to Yercaud The Rain Trees Resorts This summer","ispublic":1,"isfriend":0,"isfamily":0},{"id":"47481213132","owner":"157365331@N05","secret":"ae6ffa3bca","server":"7836","farm":8,"title":"Tips
        on Buying Real Estate with your IRA in Dallas \u2013 Sell My House Fast Dallas","ispublic":1,"isfriend":0,"isfamily":0},{"id":"40567878683","owner":"141151433@N03","secret":"21448975a1","server":"7855","farm":8,"title":"Looking
        amazing scuba diving destination?","ispublic":1,"isfriend":0,"isfamily":0},{"id":"33657017398","owner":"154844205@N05","secret":"613e84df81","server":"7887","farm":8,"title":"plane
        tickets on layaway","ispublic":1,"isfriend":0,"isfamily":0},{"id":"33656870188","owner":"158524155@N03","secret":"01b181dde4","server":"7915","farm":8,"title":"Weekend
        getaways near mumbai,Weekend getaways near pune , - novotelimagica.com","ispublic":1,"isfriend":0,"isfamily":0}]},"stat":"ok"}'
    http_version:
  recorded_at: Sun, 07 Apr 2019 04:33:34 GMT
recorded_with: VCR 4.0.0
